<svg xmlns="http://www.w3.org/2000/svg" xmlns:xlink="http://www.w3.org/1999/xlink" viewBox="0 0 24 24" width="16px" height="16px" version="1.1">
<path style="fill:#bebebe;" d="M 18.300781 18.300781 C 18.300781 18.300781 18.199219 18.300781 18.199219 18.300781 L 18 18.300781 C 17.898438 18.300781 17.800781 18.300781 17.800781 18.300781 C 17.800781 18.300781 17.699219 18.300781 17.699219 18.199219 C 17.699219 18.199219 17.601563 18.101563 17.5 17.898438 C 17.398438 17.800781 17.300781 17.601563 17.300781 17.300781 L 13.5 7.101563 C 13.300781 6.5 13 6 12.800781 5.601563 C 12.5 5.199219 12.199219 4.898438 11.898438 4.601563 C 11.601563 4.398438 11.199219 4.199219 10.800781 4.101563 C 10.199219 4 9.5 4 8.699219 4.101563 C 8.300781 4.199219 8 4.300781 7.699219 4.300781 L 7.398438 4.5 L 7.398438 7.199219 L 8.101563 7 C 8.300781 6.898438 8.5 6.898438 8.800781 6.800781 C 9.199219 6.699219 9.601563 6.699219 9.800781 6.800781 C 9.898438 6.800781 10 6.898438 10.101563 7 C 10.199219 7.101563 10.300781 7.199219 10.398438 7.398438 C 10.5 7.601563 10.601563 7.898438 10.699219 8.199219 L 11 9.199219 L 6 20.898438 L 9.300781 20.898438 L 12.398438 13.398438 L 12.5 13.199219 L 14.398438 18.398438 C 14.601563 18.800781 14.699219 19.199219 14.898438 19.5 C 15.101563 19.800781 15.300781 20.101563 15.5 20.300781 C 15.699219 20.5 16 20.699219 16.300781 20.800781 C 16.601563 20.898438 16.898438 21 17.300781 21 C 17.699219 21 18.101563 21 18.5 20.898438 L 18.898438 20.800781 L 18.898438 18.199219 Z "></path>
</svg>
